root@localhost:~# cat /proc/`pgrep test`/maps
00008000-00064000 r-xp 00000000 b3:02 43544      /root/test

0006b000-0006d000 rw-p 0005b000 b3:02 43544      /root/test

0006d000-00091000 rw-p 00000000 00:00 0          [heap]

76f3c000-76f3d000 r-xp 00000000 00:00 0          [sigpage]

7eca9000-7ecca000 rw-p 00000000 00:00 0          [stack]

ffff0000-ffff1000 r-xp 00000000 00:00 0          [vectors]


